{
    "KPlugin": {
        "Authors": [
            {
                "Email": "mart@kde.org",
                "Name": "Marco Martin",
                "Name[ar]": "Marco Martin",
                "Name[az]": "Marco Martin",
                "Name[ca@valencia]": "Marco Martin",
                "Name[ca]": "Marco Martin",
                "Name[cs]": "Marco Martin",
                "Name[de]": "Marco Martin",
                "Name[en_GB]": "Marco Martin",
                "Name[es]": "Marco Martin",
                "Name[eu]": "Marco Martin",
                "Name[fi]": "Marco Martin",
                "Name[fr]": "Marco Martin",
                "Name[hu]": "Marco Martin",
                "Name[ia]": "Marco Martin",
                "Name[id]": "Marco Martin",
                "Name[it]": "Marco Martin",
                "Name[ka]": "მაკრო მარტინი",
                "Name[ko]": "Marco Martin",
                "Name[lt]": "Marco Martin",
                "Name[nl]": "Marco Martin",
                "Name[nn]": "Marco Martin",
                "Name[pa]": "ਮਾਰਕੋ ਮਾਰਟਿਨ",
                "Name[pl]": "Marco Martin",
                "Name[pt]": "Marco Martin",
                "Name[pt_BR]": "Marco Martin",
                "Name[ro]": "Marco Martin",
                "Name[ru]": "Marco Martin",
                "Name[sk]": "Marco Martin",
                "Name[sl]": "Marco Martin",
                "Name[sv]": "Marco Martin",
                "Name[ta]": "மார்க்கோ மார்ட்டின்",
                "Name[tr]": "Marco Martin",
                "Name[uk]": "Marco Martin",
                "Name[vi]": "Marco Martin",
                "Name[x-test]": "xxMarco Martinxx",
                "Name[zh_CN]": "Marco Martin"
            }
        ],
        "Category": "Windows and Tasks",
        "Description": "Access hidden applications minimized in the system tray",
        "Description[ar]": "الوصول إلى التطبيقات المصغّرة في صينية النظام",
        "Description[az]": "Sistem treyinə yığılmış gizli tətbiqlərə giriş",
        "Description[ca@valencia]": "Accés a les aplicacions minimitzades ocultes a la safata del sistema",
        "Description[ca]": "Accés a les aplicacions minimitzades ocultes a la safata del sistema",
        "Description[cs]": "Přístup ke skrytým aplikacím, které jsou minimalizované v systémové oblasti",
        "Description[de]": "Ermöglicht den Zugriff auf Programme, die im Systemabschnitt der Kontrollleiste laufen",
        "Description[en_GB]": "Access hidden applications minimised in the system tray",
        "Description[es]": "Acceder a aplicaciones ocultas minimizadas en la bandeja del sistema",
        "Description[eu]": "Atzitu sistema-erretiluan ikonotuta dauden ezkutuko aplikazioak",
        "Description[fi]": "Hae ilmoitusalueelle pienennettyjä piilotettuja sovelluksia",
        "Description[fr]": "Accéder aux applications cachées et réduites dans la boîte à miniatures.",
        "Description[hu]": "Minimalizált alkalmazások elérését teszi lehetővé a paneltálcáról",
        "Description[ia]": "Accede a applicationes celate minimisate in le tabuliero de systema",
        "Description[id]": "Akses aplikasi tersembunyi yang diminimalkan di system tray",
        "Description[it]": "Accedi alle applicazioni minimizzate nel vassoio di sistema",
        "Description[ko]": "시스템 트레이에 숨어 있는 프로그램에 접근합니다",
        "Description[lt]": "Gauti prieigą prie į sistemos dėklą suskleistų paslėptų programų",
        "Description[nl]": "Biedt toegang tot programma's die in het systeemvak draaien",
        "Description[nn]": "Tilgang til program minimerte i systemtrauet",
        "Description[pa]": "ਸਿਸਟਮ ਟਰੇ ਵਿੱਚ ਲੁਕਵੀਆਂ ਘੱਟੋ-ਘੱਟ ਕੀਤੀਆਂ ਆਈਟਮਾਂ ਲਈ ਅਸੈੱਸ",
        "Description[pl]": "Zapewnia dostęp do programów zminimalizowanych na tacce systemowej",
        "Description[pt]": "Aceder às aplicações escondidas e minimizadas na bandeja do sistema",
        "Description[pt_BR]": "Acessa aplicativos ocultos minimizados na área de notificação",
        "Description[ro]": "Accesați aplicațiile ascunse minimizate în tava de sistem",
        "Description[ru]": "Показ значков приложений, свёрнутых в системный лоток",
        "Description[sk]": "Prístup k skrytým aplikáciam minimalizovaným do systémovej lišty",
        "Description[sl]": "Dostop do skritih programov, skrčenih v sistemski pladenj",
        "Description[sv]": "Kom åt dolda program minimerade i systembrickan",
        "Description[ta]": "கணினித்தட்டுக்கு ஒதுக்கப்பட்ட மறைந்துள்ள செயலிகளை அணுகுங்கள்",
        "Description[tr]": "Sistem çekmecesine küçültülen uygulamalara erişin",
        "Description[uk]": "Доступ до прихованих програм, мінімізованих до системного лотка",
        "Description[vi]": "Truy cập các ứng dụng ẩn được thu nhỏ trong khay hệ thống",
        "Description[x-test]": "xxAccess hidden applications minimized in the system trayxx",
        "Description[zh_CN]": "访问在系统托盘中最小化隐藏的应用程序",
        "EnabledByDefault": true,
        "FormFactors": [
            "desktop"
        ],
        "Icon": "preferences-desktop-notification",
        "Id": "org.kde.plasma.systemtray",
        "License": "GPL-2.0+",
        "Name": "System Tray",
        "Name[af]": "Stelsellaai",
        "Name[ar]": "صينية النظام",
        "Name[ast]": "Bandexa del sistema",
        "Name[az]": "Sistem Çəkməcəsi",
        "Name[be@latin]": "Systemny trej",
        "Name[be]": "Сістэмны трэй",
        "Name[bg]": "Системен панел",
        "Name[bn]": "সিস্টেম ট্রে",
        "Name[bn_IN]": "সিস্টেম ট্রে",
        "Name[br]": "Barlenn ar reizhiad",
        "Name[bs]": "Sistemska kaseta",
        "Name[ca@valencia]": "Safata del sistema",
        "Name[ca]": "Safata del sistema",
        "Name[cs]": "Systémová část panelu",
        "Name[csb]": "Systemòwi zabiérnik",
        "Name[cy]": "Bar Tasgau",
        "Name[da]": "Statusområde",
        "Name[de]": "Systemabschnitt der Kontrollleiste",
        "Name[el]": "Πλαίσιο συστήματος",
        "Name[en_GB]": "System Tray",
        "Name[eo]": "Sistempleto",
        "Name[es]": "Bandeja del sistema",
        "Name[et]": "Süsteemne dokk",
        "Name[eu]": "Sistema-erretilua",
        "Name[fa]": "سینی سیستم",
        "Name[fi]": "Ilmoitusalue",
        "Name[fr]": "Boîte à miniatures",
        "Name[fy]": "Systeemfak",
        "Name[ga]": "Tráidire an Chórais",
        "Name[gl]": "Bandexa do sistema",
        "Name[gu]": "સિસ્ટમ ટ્રે",
        "Name[he]": "מגש המערכת",
        "Name[hi]": "तंत्र तश्तरी",
        "Name[hne]": "तंत्र तस्तरी",
        "Name[hr]": "Sistemski blok",
        "Name[hsb]": "Systemowa wotkładka",
        "Name[hu]": "Paneltálca",
        "Name[ia]": "Tabuliero de systema",
        "Name[id]": "System Tray",
        "Name[is]": "Kerfisbakki",
        "Name[it]": "Vassoio di sistema",
        "Name[ja]": "システムトレイ",
        "Name[ka]": "სისტემს კუთხე",
        "Name[kk]": "Жүйелік сөре",
        "Name[km]": "ថាស​ប្រព័ន្ធ",
        "Name[kn]": "ವ್ಯವಸ್ಥಾ ಖಾನೆ (ಟ್ರೇ)",
        "Name[ko]": "시스템 트레이",
        "Name[lt]": "Sistemos dėklas",
        "Name[lv]": "Sistēmas ikonu josla",
        "Name[mai]": "तंत्र तश्तरी",
        "Name[mk]": "Системска лента",
        "Name[ml]": "സിസ്റ്റം ട്രേ",
        "Name[mr]": "प्रणाली ट्रे",
        "Name[ms]": "Dulang Sistem",
        "Name[nb]": "Systemkurv",
        "Name[nds]": "Paneel-Systeemafsnitt",
        "Name[ne]": "प्रणाली ट्रे",
        "Name[nl]": "Systeemvak",
        "Name[nn]": "Systemtrau",
        "Name[or]": "ତନ୍ତ୍ର ଧାରକ",
        "Name[pa]": "ਸਿਸਟਮ ਟਰੇ",
        "Name[pl]": "Tacka systemowa",
        "Name[pt]": "Bandeja do Sistema",
        "Name[pt_BR]": "Área de notificação",
        "Name[ro]": "Tavă de sistem",
        "Name[ru]": "Системный лоток",
        "Name[se]": "Vuogádatgárcu",
        "Name[si]": "පද්ධතිය තැටිය",
        "Name[sk]": "Systémová lišta",
        "Name[sl]": "Sistemska vrstica",
        "Name[sr@ijekavian]": "системска касета",
        "Name[sr@ijekavianlatin]": "sistemska kaseta",
        "Name[sr@latin]": "sistemska kaseta",
        "Name[sr]": "системска касета",
        "Name[sv]": "Systembricka",
        "Name[ta]": "சாதனத் தட்டு",
        "Name[te]": "వ్యవస్థ ట్రె",
        "Name[tg]": "Лавҳачаи низомӣ",
        "Name[th]": "ถาดระบบ",
        "Name[tr]": "Sistem Çekmecesi",
        "Name[ug]": "سىستېما قوندىقى",
        "Name[uk]": "Системний лоток",
        "Name[vi]": "Khay hệ thống",
        "Name[wa]": "Boesse ås imådjetes sistinme",
        "Name[x-test]": "xxSystem Trayxx",
        "Name[xh]": "Itreyi Yendlela yokusebenza",
        "Name[zh_CN]": "系统托盘",
        "Name[zh_TW]": "系統匣",
        "ServiceTypes": [
            "Plasma/Applet"
        ],
        "Version": "1.0",
        "Website": "https://www.kde.org/plasma-desktop"
    },
    "X-Plasma-API": "declarativeappletscript",
    "X-Plasma-ContainmentType": "Panel",
    "X-Plasma-MainScript": "ui/main.qml"
}
