{
    "KPlugin": {
        "Authors": [
            {
                "Email": "aleixpol@blue-systems.com",
                "Name": "Aleix Pol Gonzalez",
                "Name[ar]": "Aleix Pol Gonzalez",
                "Name[az]": "Aleix Pol Gonzalez",
                "Name[ca@valencia]": "Aleix Pol Gonzalez",
                "Name[ca]": "Aleix Pol Gonzalez",
                "Name[cs]": "Aleix Pol Gonzalez",
                "Name[de]": "Aleix Pol Gonzalez",
                "Name[en_GB]": "Aleix Pol Gonzalez",
                "Name[es]": "Aleix Pol Gonzalez",
                "Name[eu]": "Aleix Pol Gonzalez",
                "Name[fi]": "Aleix Pol Gonzalez",
                "Name[fr]": "Aleix Pol Gonzalez",
                "Name[hu]": "Aleix Pol Gonzalez",
                "Name[ia]": "Aleix Pol Gonzalez",
                "Name[id]": "Aleix Pol Gonzalez",
                "Name[it]": "Aleix Pol Gonzalez",
                "Name[ka]": "Aleix Pol Gonzalez",
                "Name[ko]": "Aleix Pol Gonzalez",
                "Name[lt]": "Aleix Pol Gonzalez",
                "Name[nl]": "Aleix Pol Gonzalez",
                "Name[nn]": "Aleix Pol Gonzalez",
                "Name[pa]": "ਐਲਿਕਸ ਪੋਲ ਗੋਨਜ਼ਾਵੇਜ",
                "Name[pl]": "Aleix Pol Gonzalez",
                "Name[pt]": "Aleix Pol Gonzalez",
                "Name[pt_BR]": "Aleix Pol Gonzalez",
                "Name[ro]": "Aleix Pol Gonzalez",
                "Name[ru]": "Aleix Pol Gonzalez",
                "Name[sk]": "Aleix Pol Gonzalez",
                "Name[sl]": "Aleix Pol Gonzalez",
                "Name[sv]": "Aleix Pol Gonzalez",
                "Name[tr]": "Aleix Pol Gonzalez",
                "Name[uk]": "Aleix Pol Gonzalez",
                "Name[vi]": "Aleix Pol Gonzalez",
                "Name[x-test]": "xxAleix Pol Gonzalezxx",
                "Name[zh_CN]": "Aleix Pol Gonzalez"
            }
        ],
        "Description": "Lets you find software",
        "Description[ar]": "يجعلك تجد التطبيقات",
        "Description[az]": "Tətbiqləri tapmağa sizə imkan verir",
        "Description[ca@valencia]": "Permet buscar programari",
        "Description[ca]": "Permet cercar programari",
        "Description[cs]": "Umožní vám hledat software",
        "Description[de]": "Unterstützt die Suche nach Software",
        "Description[en_GB]": "Lets you find software",
        "Description[es]": "Le permite encontrar software",
        "Description[eu]": "Softwarea aurkitzeko aukera ematen dizu",
        "Description[fi]": "Etsi ohjelmia",
        "Description[fr]": "Vous permet de trouver des logiciels",
        "Description[hu]": "Lehetővé teszi szoftverek keresését",
        "Description[ia]": "Te permitte trovar software",
        "Description[id]": "Temukanlah perangkat lunak",
        "Description[it]": "Ti consente di trovare i programmi",
        "Description[ko]": "소프트웨어를 찾을 수 있습니다",
        "Description[lt]": "Leidžia rasti programinę įrangą",
        "Description[nl]": "Laat u software vinden",
        "Description[nn]": "Lèt deg finna programvare",
        "Description[pa]": "ਤੁਹਾਨੂੰ ਸਾਫਟਵੇਅਰ ਲੱਭਣ ਦਿੰਦਾ ਹੈ",
        "Description[pl]": "Umożliwia wyszukiwanie programów",
        "Description[pt]": "Permite-lhe procurar por aplicações",
        "Description[pt_BR]": "Vamos encontrar seu software",
        "Description[ro]": "Vă permite să găsiți aplicații",
        "Description[ru]": "Поиск программ",
        "Description[sk]": "Umožní vám nájsť softvér",
        "Description[sl]": "Omogoča iskanje programske opreme",
        "Description[sv]": "Låter dig söka efter programvara",
        "Description[ta]": "புதிய செயலிகளை கண்டுபிடிக்க உதவும்",
        "Description[tr]": "Yazılım bulmanızı sağlar",
        "Description[uk]": "Допомагає вам шукати програми",
        "Description[vi]": "Cho phép bạn tìm phần mềm",
        "Description[x-test]": "xxLets you find softwarexx",
        "Description[zh_CN]": "协助用户查找软件",
        "EnabledByDefault": true,
        "Icon": "applications-other",
        "Id": "appstream",
        "License": "GPL",
        "Name": "Software Center",
        "Name[ar]": "مركز التطبيقات",
        "Name[ast]": "Centru de software",
        "Name[az]": "Proqram Təminatı Mərkəzi",
        "Name[ca@valencia]": "Centre de programari",
        "Name[ca]": "Centre de programari",
        "Name[cs]": "Centrum softwaru",
        "Name[da]": "Softwarecenter",
        "Name[de]": "Programmverwaltung",
        "Name[el]": "Κέντρο λογισμικού",
        "Name[en_GB]": "Software Centre",
        "Name[es]": "Centro de software",
        "Name[et]": "Tarkvarakeskus",
        "Name[eu]": "Software gunea",
        "Name[fi]": "Ohjelmakeskus",
        "Name[fr]": "Logithèque",
        "Name[gl]": "Centro de Software",
        "Name[he]": "מרכז התוכנות",
        "Name[hi]": "सॉफ्टवेयर केन्द्र",
        "Name[hu]": "Szoftverközpont",
        "Name[ia]": "Centro de Software",
        "Name[id]": "Sentra Perangkat Lunak",
        "Name[it]": "Software Center",
        "Name[ka]": "პროგრამების ცენტრი",
        "Name[ko]": "소프트웨어 센터",
        "Name[lt]": "Programinės įrangos centras",
        "Name[lv]": "Programmatūras centrs",
        "Name[ml]": "സോഫ്റ്റ്‍വെയർ സെന്റർ",
        "Name[nl]": "Softwarecentrum",
        "Name[nn]": "Programvaresenter",
        "Name[pa]": "ਸਾਫਟਵੇਅਰ ਕੇਂਦਰ",
        "Name[pl]": "Ośrodek programów",
        "Name[pt]": "Centro de Aplicações",
        "Name[pt_BR]": "Central de aplicativos",
        "Name[ro]": "Centru de aplicații",
        "Name[ru]": "Центр программ",
        "Name[sk]": "Softvérové centum",
        "Name[sl]": "Programsko središče",
        "Name[sr@ijekavian]": "софтверски центар",
        "Name[sr@ijekavianlatin]": "softverski centar",
        "Name[sr@latin]": "softverski centar",
        "Name[sr]": "софтверски центар",
        "Name[sv]": "Programvarucenter",
        "Name[ta]": "மென்பொருள் மையம்",
        "Name[tr]": "Yazılım Merkezi",
        "Name[uk]": "Центр програм",
        "Name[vi]": "Trung tâm phần mềm",
        "Name[x-test]": "xxSoftware Centerxx",
        "Name[zh_CN]": "软件中心",
        "Name[zh_TW]": "軟體中心"
    }
}
