{
    "KPlugin": {
        "Description": "Applies extracted accent color from wallpaper on dbus request",
        "Description[ar]": "تطبق لون التمييز المستخرج من صورة الخلفية عند طلبها بواسطة دي-باص",
        "Description[az]": "Divar kağızından alınmış vurğu rəngini DBus sorğusuna tətbiq edir",
        "Description[ca@valencia]": "Aplicar el color d'accent extret a partir del fons de pantalla a petició de D-Bus",
        "Description[ca]": "Aplicar el color d'accent extret a partir del fons de pantalla a petició del D-Bus",
        "Description[en_GB]": "Applies extracted accent colour from wallpaper on dbus request",
        "Description[es]": "Aplica el color de acentuación extraído del fondo de pantalla en una petición D-Bus",
        "Description[fr]": "Applique une couleur accentuée extraite du fonds d'écran à partir d'une requête « D-Bus »",
        "Description[it]": "Applica il colore secondario estratto dallo sfondo su richiesta dbus",
        "Description[ko]": "D-Bus 요청을 받았을 때 배경 그림에서 추출한 강조색 적용",
        "Description[nl]": "Past de uitgepakte accentkleur uit achtergrondafbeelding toe op dbus-verzoek",
        "Description[pl]": "Stosuje wydobytą barwę akcentu z tapety na żądanie dbus",
        "Description[pt]": "Aplica a cor acentuada extraída do papel de parede no pedido de DBus",
        "Description[ro]": "Aplică culoarea de accent extrasă din tapet la cerere dbus",
        "Description[sk]": "Aplikuje extrahovanú farbu akcentu z tapety na požiadavku dbus",
        "Description[sl]": "Uveljavi izločeno barva poudarka iz ozadja na zahtevo dbusa",
        "Description[sv]": "Använder extraherad accentfärg från skrivbordsunderlägg på begäran från D-bus",
        "Description[tr]": "dbus isteğinde, duvar kağıdından çıkarılan vurgu rengini uygular",
        "Description[uk]": "Застосовує видобутий з фонового зображення стільниці колір акценту у відповідь на запит DBus",
        "Description[vi]": "Áp dung màu chủ đạo trích xuất từ phông nền khi có yêu cầu dbus",
        "Description[x-test]": "xxApplies extracted accent color from wallpaper on dbus requestxx",
        "Description[zh_CN]": "按照 dbus 请求应用从壁纸中提取的重点色",
        "Name": "accentColorService",
        "Name[ar]": "خدمة_لون_التمييز",
        "Name[az]": "vurğu_rəngi_xidməti",
        "Name[ca@valencia]": "ServeiColorAccent",
        "Name[ca]": "ServeiColorAccent",
        "Name[en_GB]": "accentColorService",
        "Name[es]": "Servicio de color de acentuación",
        "Name[fr]": "Service de couleurs accentuées",
        "Name[it]": "accentColorService",
        "Name[ka]": "accentColorService",
        "Name[ko]": "강조색서비스",
        "Name[nl]": "accentColorService",
        "Name[pl]": "Usługa barwy akcentu",
        "Name[pt]": "accentColorService",
        "Name[ro]": "accentColorService",
        "Name[sk]": "accentColorService",
        "Name[sl]": "accentColorService",
        "Name[sv]": "Accentfärgtjänst",
        "Name[tr]": "accentColorService",
        "Name[uk]": "accentColorService",
        "Name[vi]": "accentColorService",
        "Name[x-test]": "xxaccentColorServicexx",
        "Name[zh_CN]": "重点色服务"
    },
    "X-KDE-FactoryName": "accentColorService",
    "X-KDE-Kded-autoload": true
}
