{
    "KPlugin": {
        "Authors": [
            {
                "Email": "tpr@iki.fi",
                "Name": "Teemu Rytilahti",
                "Name[ar]": "Teemu Rytilahti",
                "Name[az]": "Teemu Rytilahti",
                "Name[ca@valencia]": "Teemu Rytilahti",
                "Name[ca]": "Teemu Rytilahti",
                "Name[cs]": "Teemu Rytilahti",
                "Name[de]": "Teemu Rytilahti",
                "Name[en_GB]": "Teemu Rytilahti",
                "Name[es]": "Teemu Rytilahti",
                "Name[eu]": "Teemu Rytilahti",
                "Name[fi]": "Teemu Rytilahti",
                "Name[fr]": "Teemu Rytilahti",
                "Name[hu]": "Teemu Rytilahti",
                "Name[ia]": "Teemu Rytilahti",
                "Name[id]": "Teemu Rytilahti",
                "Name[it]": "Teemu Rytilahti",
                "Name[ka]": "Teemu Rytilahti",
                "Name[ko]": "Teemu Rytilahti",
                "Name[lt]": "Teemu Rytilahti",
                "Name[nl]": "Teemu Rytilahti",
                "Name[nn]": "Teemu Rytilahti",
                "Name[pl]": "Teemu Rytilahti",
                "Name[pt]": "Teemu Rytilahti",
                "Name[pt_BR]": "Teemu Rytilahti",
                "Name[ro]": "Teemu Rytilahti",
                "Name[ru]": "Teemu Rytilahti",
                "Name[sk]": "Teemu Rytilahti",
                "Name[sl]": "Teemu Rytilahti",
                "Name[sv]": "Teemu Rytilahti",
                "Name[tr]": "Teemu Rytilahti",
                "Name[uk]": "Teemu Rytilahti",
                "Name[vi]": "Teemu Rytilahti",
                "Name[x-test]": "xxTeemu Rytilahtixx",
                "Name[zh_CN]": "Teemu Rytilahti"
            }
        ],
        "Description": "Search the web using keywords",
        "Description[ar]": "يبحث في الويب باستخدام كلمات مفتاحية",
        "Description[az]": "Açar sözlərdən istifadə edərək internetdə axtarış",
        "Description[ca@valencia]": "Busca a la web usant paraules clau",
        "Description[ca]": "Cerca a la web usant paraules clau",
        "Description[cs]": "Prohledat web použitím klíčových slov",
        "Description[de]": "Das Web mit Web-Kürzeln durchsuchen",
        "Description[en_GB]": "Search the web using keywords",
        "Description[es]": "Buscar la web usando palabras clave",
        "Description[eu]": "Bilatu webean gako-hitzak erabiliz",
        "Description[fi]": "Etsi verkosta hakusanoilla",
        "Description[fr]": "Rechercher sur Internet en utilisant des mots clé",
        "Description[hu]": "Keresés az interneten kulcsszavakkal",
        "Description[ia]": "Cerca in le web usante parolas clave",
        "Description[id]": "Cari web menggunakan kata kunci",
        "Description[it]": "Cerca nel web utilizzando parole chiave",
        "Description[ko]": "키워드로 웹 검색",
        "Description[lt]": "Ieškoti saityne naudojant raktažodžius",
        "Description[nl]": "Op het web zoeken met trefwoorden",
        "Description[nn]": "Søk på nettet via nøkkelord",
        "Description[pl]": "Wyszukaj w sieci przy użyciu słów kluczowych",
        "Description[pt]": "Pesquisar na Web com palavras-chave",
        "Description[pt_BR]": "Pesquise na web usando palavras-chave",
        "Description[ro]": "Caută pe web folosind cuvinte cheie",
        "Description[ru]": "Поиск в веб, запускаемый ключевыми словами",
        "Description[sk]": "Hľadajte na webe pomocou kľúčových slov",
        "Description[sl]": "Preišči splet z uporabo ključnih besed",
        "Description[sv]": "Sök på webben med nyckelord",
        "Description[ta]": "முதன்மைச்சொற்களை பொறுத்து இணையத்தில் தேடும்",
        "Description[tr]": "Anahtar sözcükleri kullanarak web'de arama yapın",
        "Description[uk]": "Пошук в інтернеті за допомогою ключових слів",
        "Description[vi]": "Tìm kiếm web dùng các từ khoá",
        "Description[x-test]": "xxSearch the web using keywordsxx",
        "Description[zh_CN]": "使用关键字搜索网络内容",
        "EnabledByDefault": true,
        "Icon": "internet-web-browser",
        "Id": "webshortcuts",
        "License": "LGPL",
        "Name": "Web Search Keywords",
        "Name[ar]": "كلمات بحث الويب",
        "Name[az]": "İnternetdə axtarış üçün açar sözlər",
        "Name[ca@valencia]": "Paraules clau de busca a la web",
        "Name[ca]": "Paraules clau de cerca a la web",
        "Name[cs]": "Klíčová slova pro hledání na webu",
        "Name[de]": "Web-Kürzel",
        "Name[en_GB]": "Web Search Keywords",
        "Name[es]": "Palabras clave de búsqueda web",
        "Name[eu]": "Web bilaketarako gako-hitzak",
        "Name[fi]": "Verkkohaun hakusanat",
        "Name[fr]": "Mots clé de recherche sur Internet",
        "Name[hu]": "Webes keresési kulcsszavak",
        "Name[ia]": "Parolas clave de cerca de web",
        "Name[id]": "Kata Kunci Pencarian Web",
        "Name[it]": "Parole chiave delle ricerche web",
        "Name[ka]": "ვებში ძებნის საკვანძო სიტყვები",
        "Name[ko]": "웹 검색 키워드",
        "Name[lt]": "Paieškos saityne raktažodžiai",
        "Name[nl]": "Webzoektrefwoorden",
        "Name[nn]": "Nøkkelord for vevsøk",
        "Name[pa]": "ਵੈੱਬ ਖੋਜ ਸ਼ਬਦ",
        "Name[pl]": "Słowa kluczowe do wyszukiwania w sieci",
        "Name[pt]": "Palavras-Chave da Pesquisa Web",
        "Name[pt_BR]": "Palavras-chave de pesquisa na Web",
        "Name[ro]": "Cuvinte-cheie de căutare web",
        "Name[ru]": "Ключевые слова для веб-поиска",
        "Name[sk]": "Kľúčové slová pre vyhľadávanie na webe",
        "Name[sl]": "Ključne besede iskanja po spletu",
        "Name[sv]": "Webbsökningsnyckelord",
        "Name[ta]": "இணைய தேடல் முதன்மைச்சொற்கள்",
        "Name[tr]": "Web Arama Anahtar Sözcükleri",
        "Name[uk]": "Ключові слова пошуку в інтернеті",
        "Name[vi]": "Từ khoá tìm kiếm web",
        "Name[x-test]": "xxWeb Search Keywordsxx",
        "Name[zh_CN]": "网络搜索关键词"
    },
    "X-KDE-ConfigModule": "kcm_webshortcuts"
}
